Capstone Final
…
child_dname_3 <- child_dname %>% filter(RNAME == "Sindh") %>% left_join(ica_df_3, by = c("dname" = "Districts"))

child_dname_3 %>% group_by(dname) %>% summarize(n = sum(x))

## `summarise()` ungrouping output (override with `.groups` argument)

## # A tibble: 25 x 2
##    dname                     n
##    <chr>                 <dbl>
##  1 badin               132177.
##  2 dadu                130944.
##  3 gotki               138955.
##  4 hyderabad           126370.
##  5 jacobabad           113124.
##  6 jamshoro             95520.
##  7 karachi-malir-rural  75832.
##  8 karachi-west-rural      NA 
##  9 kashmore            132646.
## 10 khairpur            107834.
## # ... with 15 more rows
…
